digraph {
    rankdir="LR"
    node[shape="rectangle"]
    edge[dir=back]
    "e966b40" -> "8fc7c81" -> "5f9e1e1" -> "7921050" -> "e42ba4c"
    node[shape=ellipse]
    { rank=same; "e42ba4c" -> "master" }
    "master" [style="filled", fillcolor="yellow"]
}
