digraph G {
    bgcolor="transparent";
    subgraph {
        rank=same;
        node[shape=rectangle];
        "Edit files" -> "Stage the changes" -> "Commit";
        "Commit" [style="filled", fillcolor="yellow"];
    }
    "Commit" -> "Edit files";
}
