digraph {
    bgcloro="transparent"
    rankdir="LR"
    node[shape="rectangle", group=main]
    edge[dir=back]
    "e966b40" -> "8fc7c81" -> "5f9e1e1"
    node[shape=ellipse, group=branch]
    subgraph {
        edge[style=invis]
        "master" -> "feature1"
    }
    { rank=same; "master"; "5f9e1e1" }
    { "5f9e1e1" -> "master" ;}
    { "5f9e1e1" -> "feature1" ;}
    "master" [style="filled", fillcolor="yellow"]
}
