digraph {
    bgcloro="transparent"
    rankdir="LR"
    node[shape="rectangle", group=main]
    edge[dir=back]
    "e966b40" -> "8fc7c81" -> "5f9e1e1" -> "2dcdff0" -> "fa0c5ef"
    node[shape=ellipse, group=branch]
    subgraph {
        edge[style=invis]
        "master" -> "feature1"
    }
    { rank=same; "master"; "5f9e1e1" }
    { "5f9e1e1" -> "master" ;}
    { rank=same; "feature1"; "fa0c5ef" }
    { "fa0c5ef" -> "feature1" ;}
    "feature1" [style="filled", fillcolor="yellow"]
}
